{
	"id": "sheet-macro",
	"name": "sheet-macro",
	"title": "Actor Sheet Macro",
	"description": "Drag actors to the macro bar to create a macro that opens their sheet.",
	"version": "1.6",
	"minimumCoreVersion": "10",
	"compatibleCoreVersion": "11",
	"compatibility": {
		"minimum": 10,
		"verified": 11
	},
	"authors": [{"name": "Kim Mantas"}],
	"scripts": ["main.js"],
	"url": "https://bitbucket.org/Fyorl/sheet-macro",
	"manifest": "https://bitbucket.org/Fyorl/sheet-macro/raw/master/module.json",
	"download": "https://bitbucket.org/Fyorl/sheet-macro/get/1.6.zip",
	"readme": "README.md"
}
